%YAML 1.1
%TAG !u! tag:unity3d.com,2011:
--- !u!1001 &4030172236019790081
PrefabInstance:
  m_ObjectHideFlags: 0
  serializedVersion: 2
  m_Modification:
    m_TransformParent: {fileID: 0}
    m_Modifications:
    - target: {fileID: 2006073112349863913, guid: af4a587215969bd42beb615d0b528e2b, type: 3}
      propertyPath: m_Name
      value: Player(Keyboard 2) Variant
      objectReference: {fileID: 0}
    - target: {fileID: 2006073112349863922, guid: af4a587215969bd42beb615d0b528e2b, type: 3}
      propertyPath: isKeyboard2
      value: 1
      objectReference: {fileID: 0}
    - target: {fileID: 2006073112349863925, guid: af4a587215969bd42beb615d0b528e2b, type: 3}
      propertyPath: m_LocalPosition.x
      value: 0
      objectReference: {fileID: 0}
    - target: {fileID: 2006073112349863925, guid: af4a587215969bd42beb615d0b528e2b, type: 3}
      propertyPath: m_LocalPosition.y
      value: 0
      objectReference: {fileID: 0}
    - target: {fileID: 2006073112349863925, guid: af4a587215969bd42beb615d0b528e2b, type: 3}
      propertyPath: m_LocalPosition.z
      value: 0
      objectReference: {fileID: 0}
    - target: {fileID: 2006073112349863925, guid: af4a587215969bd42beb615d0b528e2b, type: 3}
      propertyPath: m_LocalRotation.x
      value: 0
      objectReference: {fileID: 0}
    - target: {fileID: 2006073112349863925, guid: af4a587215969bd42beb615d0b528e2b, type: 3}
      propertyPath: m_LocalRotation.y
      value: 0
      objectReference: {fileID: 0}
    - target: {fileID: 2006073112349863925, guid: af4a587215969bd42beb615d0b528e2b, type: 3}
      propertyPath: m_LocalRotation.z
      value: 0
      objectReference: {fileID: 0}
    - target: {fileID: 2006073112349863925, guid: af4a587215969bd42beb615d0b528e2b, type: 3}
      propertyPath: m_LocalRotation.w
      value: 1
      objectReference: {fileID: 0}
    - target: {fileID: 2006073112349863925, guid: af4a587215969bd42beb615d0b528e2b, type: 3}
      propertyPath: m_RootOrder
      value: 0
      objectReference: {fileID: 0}
    - target: {fileID: 2006073112349863925, guid: af4a587215969bd42beb615d0b528e2b, type: 3}
      propertyPath: m_LocalEulerAnglesHint.x
      value: 0
      objectReference: {fileID: 0}
    - target: {fileID: 2006073112349863925, guid: af4a587215969bd42beb615d0b528e2b, type: 3}
      propertyPath: m_LocalEulerAnglesHint.y
      value: 0
      objectReference: {fileID: 0}
    - target: {fileID: 2006073112349863925, guid: af4a587215969bd42beb615d0b528e2b, type: 3}
      propertyPath: m_LocalEulerAnglesHint.z
      value: 0
      objectReference: {fileID: 0}
    m_RemovedComponents:
    - {fileID: 2006073112349863923, guid: af4a587215969bd42beb615d0b528e2b, type: 3}
  m_SourcePrefab: {fileID: 100100000, guid: af4a587215969bd42beb615d0b528e2b, type: 3}
