%YAML 1.1
%TAG !u! tag:unity3d.com,2011:
--- !u!1 &812626256195151783
GameObject:
  m_ObjectHideFlags: 0
  m_CorrespondingSourceObject: {fileID: 0}
  m_PrefabInstance: {fileID: 0}
  m_PrefabAsset: {fileID: 0}
  serializedVersion: 6
  m_Component:
  - component: {fileID: 812626256195151781}
  - component: {fileID: 812626256195151780}
  m_Layer: 0
  m_Name: GameManager
  m_TagString: Untagged
  m_Icon: {fileID: 0}
  m_NavMeshLayer: 0
  m_StaticEditorFlags: 0
  m_IsActive: 1
--- !u!4 &812626256195151781
Transform:
  m_ObjectHideFlags: 0
  m_CorrespondingSourceObject: {fileID: 0}
  m_PrefabInstance: {fileID: 0}
  m_PrefabAsset: {fileID: 0}
  m_GameObject: {fileID: 812626256195151783}
  m_LocalRotation: {x: 0, y: 0, z: 0, w: 1}
  m_LocalPosition: {x: 0, y: 0, z: 0}
  m_LocalScale: {x: 1, y: 1, z: 1}
  m_Children: []
  m_Father: {fileID: 0}
  m_RootOrder: 0
  m_LocalEulerAnglesHint: {x: 0, y: 0, z: 0}
--- !u!114 &812626256195151780
MonoBehaviour:
  m_ObjectHideFlags: 0
  m_CorrespondingSourceObject: {fileID: 0}
  m_PrefabInstance: {fileID: 0}
  m_PrefabAsset: {fileID: 0}
  m_GameObject: {fileID: 812626256195151783}
  m_Enabled: 1
  m_EditorHideFlags: 0
  m_Script: {fileID: 11500000, guid: 46be8cd285a6c414bb7d37be71fbf42a, type: 3}
  m_Name: 
  m_EditorClassIdentifier: 
  playerSpawnEffect: {fileID: 4658375304114220321, guid: b7e15cff05fa3064aaafbfb20d5aa047, type: 3}
  allLevels:
  - Arena Test 1
  - Arena Test 1
  lastPlayerNumber: 0
  pointsToWin: 3
  winLevel: Game win Screen
  maxPlayer: 4
  activePlayer: []
  canFight: 0
